Chapter 3 Propensity Score Matching | A Mega-Analysis of Personality Predictions: Robustness and Boundary Conditions
…
# number of files
list.files(sprintf("%s/data/psm_matched", wd))[1:15]

##  [1] "Add Health_A_chldbrth_1995_1_age.RData"         "Add Health_A_chldbrth_1995_1_gender.RData"      "Add Health_A_chldbrth_1995_1_grsWages.RData"   
##  [4] "Add Health_A_chldbrth_1995_1_none.RData"        "Add Health_A_chldbrth_1995_1_parEdu.RData"      "Add Health_A_chldbrth_1995_1_parOccPrstg.RData"
##  [7] "Add Health_A_chldbrth_1995_1_race.RData"        "Add Health_A_chldbrth_1995_1_SES.RData"         "Add Health_A_chldbrth_1995_2_age.RData"        
## [10] "Add Health_A_chldbrth_1995_2_gender.RData"      "Add Health_A_chldbrth_1995_2_grsWages.RData"    "Add Health_A_chldbrth_1995_2_none.RData"       
## [13] "Add Health_A_chldbrth_1995_2_parEdu.RData"      "Add Health_A_chldbrth_1995_2_parOccPrstg.RData" "Add Health_A_chldbrth_1995_2_race.RData"

# sample file
load(sprintf("%s/data/psm_matched/GSOEP_C_physhlthevnt_2005_5_none.RData", wd))
d

## # A tibble: 7,869 x 3
##    SID   o_value distance
##    <fct> <fct>      <dbl>
##  1 1602  1          0.713
##  2 1603  0          0.625
##  3 1705  0          0.609
##  4 2304  0          0.728
##  5 8303  0          0.713
##  6 8604  1          0.741
##  7 8606  1          0.643
##  8 9103  1          0.692
##  9 9206  0          0.656
## 10 9403  1          0.630
## # … with 7,859 more rows
…
3.3.1 Run

Run the above functions to create the balance tables and plots.

# unmatched data
psm_unmatched <- tibble(um_file = list.files(sprintf("%s/data/psm_raw", wd))) %>%
  separate(um_file
           , c("study", "year", "Outcome", "Trait", "imp")
           , sep = "_"
           , remove = F) %>%
  mutate(imp = str_remove_all(imp, "[A-Z a-z .]"))
psm_unmatched

## # A tibble: 7,660 x 6
##    um_file                            study      year  Outcome  Trait imp  
##    <chr>                              <chr>      <chr> <chr>    <chr> <chr>
##  1 Add Health_1995_chldbrth_A_1.RData Add Health 1995  chldbrth A     1    
##  2 Add Health_1995_chldbrth_A_2.RData Add Health 1995  chldbrth A     2    
##  3 Add Health_1995_chldbrth_A_3.RData Add Health 1995  chldbrth A     3    
##  4 Add Health_1995_chldbrth_A_4.RData Add Health 1995  chldbrth A     4    
##  5 Add Health_1995_chldbrth_A_5.RData Add Health 1995  chldbrth A     5    
##  6 Add Health_1995_chldbrth_C_1.RData Add Health 1995  chldbrth C     1    
##  7 Add Health_1995_chldbrth_C_2.RData Add Health 1995  chldbrth C     2    
##  8 Add Health_1995_chldbrth_C_3.RData Add Health 1995  chldbrth C     3    
##  9 Add Health_1995_chldbrth_C_4.RData Add Health 1995  chldbrth C     4    
## 10 Add Health_1995_chldbrth_C_5.RData Add Health 1995  chldbrth C     5    
## # … with 7,650 more rows

# matched data
psm_matched <- tibble(m_file = list.files(sprintf("%s/data/psm_matched", wd))) %>%
  separate(m_file
           , c("study","Trait", "Outcome", "year", "imp", "Moderator")
           , sep = "_"
           , remove = F) %>%
  mutate(Moderator = str_remove_all(Moderator, ".RData"))
psm_matched

## # A tibble: 51,523 x 7
##    m_file                                         study      Trait Outcome  year  imp   Moderator  
##    <chr>                                          <chr>      <chr> <chr>    <chr> <chr> <chr>      
##  1 Add Health_A_chldbrth_1995_1_age.RData         Add Health A     chldbrth 1995  1     age        
##  2 Add Health_A_chldbrth_1995_1_gender.RData      Add Health A     chldbrth 1995  1     gender     
##  3 Add Health_A_chldbrth_1995_1_grsWages.RData    Add Health A     chldbrth 1995  1     grsWages   
##  4 Add Health_A_chldbrth_1995_1_none.RData        Add Health A     chldbrth 1995  1     none       
##  5 Add Health_A_chldbrth_1995_1_parEdu.RData      Add Health A     chldbrth 1995  1     parEdu     
##  6 Add Health_A_chldbrth_1995_1_parOccPrstg.RData Add Health A     chldbrth 1995  1     parOccPrstg
##  7 Add Health_A_chldbrth_1995_1_race.RData        Add Health A     chldbrth 1995  1     race       
##  8 Add Health_A_chldbrth_1995_1_SES.RData         Add Health A     chldbrth 1995  1     SES        
##  9 Add Health_A_chldbrth_1995_2_age.RData         Add Health A     chldbrth 1995  2     age        
## 10 Add Health_A_chldbrth_1995_2_gender.RData      Add Health A     chldbrth 1995  2     gender     
## # … with 51,513 more rows
…
