Chapter 2 Data Cleaning | A Mega-Analysis of Personality Predictions: Robustness and Boundary Conditions
…
The initial sample of participants included approximately 20,000 students who completed at home administrations the study. Four waves of data collection (1994-1995, 1996, 2001-2002, and 2008) have been completed. The latest release contains data through 2008. Another wave of collection began in 2016 but has not yet been released. More documentation of the data are available at https://www.icpsr.umich.edu/icpsrweb/content/DSDR/add-health-data-guide.html#intro.

Sample sizes vary by year, from 14,738 (1996) to 20,745 (1994-1995). This provides 99% power to detect a correlation effect size of ~.03.

2.1.1 Load Data

addhealth_read_fun <- function(x){
  sprintf("%s/data/addhealth/%s", wd, x) %>% haven::read_sav(.) %>% select(one_of(old.names)) %>% haven::zap_labels(.) 
}

addhealth_codebook <- (codebook %>% filter(study == "Add Health"))$codebook[[1]] %>% 
  mutate(orig_itemname = str_to_upper(orig_itemname))
addhealth_codebook

## # A tibble: 533 x 16
##    study dataset category name  itemname wave   year new_itemname orig_itemname description
##    <chr> <chr>   <chr>    <chr> <chr>    <chr> <dbl> <chr>        <chr>         <chr>      
##  1 addh… SCH     match    adop… adopted  SCH    1994 addhealth__… S25           Adopted    
##  2 addh… SCH     match    age   age      SCH    1994 addhealth__… S1            Age        
##  3 addh… SCH     match    alco… alc12mo  SCH    1994 <NA>         S59B          Drank Alco…
##  4 addh… SCH     match    alco… alcohol  SCH    1994 <NA>         S49           Have Had A…
##  5 addh… SCH     match    alco… drunk12… SCH    1994 <NA>         S59C          Got Drunk …
##  6 addh… SCH     match    bioP… livingB… SCH    1994 <NA>         S26           Live with …
##  7 addh… SCH     match    birt… birthpl… SCH    1994 <NA>         S8            Born in Un…
##  8 addh… Parent  match    birt… borninUS Pare…  1995 <NA>         PC64          Child was …
##  9 addh… Parent  match    birt… bornUS   Pare…  1995 <NA>         PA3           Born in Un…
## 10 addh… Parent  match    brth… birthwe… Pare…  1995 <NA>         PC19A_P       Child's bi…
## # … with 523 more rows, and 6 more variables: scale <chr>, reverse_code <chr>, recode <chr>,
## #   mini <dbl>, maxi <dbl>, comp_rule <chr>
…
addhealth_match <- crossing(
  p_year = addhealth_waves$Used, 
  comp_rule = unique(addhealth_match$comp_rule)
  ) %>%
  mutate(data = map2(comp_rule, p_year, comp_fun)) %>%
  unnest(data) %>% 
  distinct() %>%
  mutate(value = ifelse(is.infinite(value) | is.nan(value), NA, value)) %>%
  select(-comp_rule) %>%
  spread(name, value) 
addhealth_match

## # A tibble: 19,515 x 120
##    p_year SID   physhlthevnt     A     C     DEP     E    IQ   LOC     N  `NA`    PA    SE
##     <dbl> <chr>        <dbl> <dbl> <dbl>   <dbl> <dbl> <dbl> <dbl> <dbl> <dbl> <dbl> <dbl>
##  1   1995 5710…            0   3.5  3.5   0.5       NA  28     2      NA   0.5     0  5   
##  2   1996 5710…            0  NA   NA    NA         NA  NA    NA      NA  NA      NA NA   
##  3   2001 5710…           NA  NA   NA     1.75      NA  NA    NA      NA   2      NA  4.75
##  4   1995 5710…            0   3    2.75  0.611     NA  59.5   2      NA   0.5     0  3.83
##  5   1996 5710…            0  NA   NA     0.167      4  NA     3.5     3   0       0  5   
##  6   2001 5710…           NA  NA   NA     1.25      NA  NA    NA      NA   1      NA  3.5 
##  7   1995 5710…            0   4.5  3     0.0556    NA  79     3      NA   0       0  4.83
##  8   1996 5710…            0  NA   NA    NA         NA  NA    NA      NA  NA      NA NA   
##  9   2001 5710…            0  NA   NA    NA         NA  NA    NA      NA  NA      NA NA   
## 10   1995 5710…            0   4.5  2     1.17      NA  57     5      NA   0.5     1  4.67
## # … with 19,505 more rows, and 107 more variables: SWL <dbl>, adopted <dbl>,
## #   ageMarried <dbl>, alcohol <dbl>, bioParinHH <dbl>, birthplace <dbl>, brthweight <dbl>,
## #   childFrnd <dbl>, childHlthProb <dbl>, childTemper <dbl>, childTrustwrthy <dbl>,
## #   chldAgeHlthProb <dbl>, chldHlthIns <dbl>, chldHlthProb <dbl>, clubs <dbl>, dadAlc <dbl>,
## #   dadBornUS <dbl>, dadCare <dbl>, dadEdu <dbl>, dadEmployed <dbl>, dadHealthProb <dbl>,
## #   dadInHH <dbl>, date <dbl>, dentist <dbl>, disability <dbl>, drugs <dbl>, drVisits <dbl>,
## #   durBreastFeed <dbl>, employed <dbl>, everLiveBioDad <dbl>, everLiveBioMom <dbl>,
## #   exercise <dbl>, expAIDS <dbl>, expDie25 <dbl>, expGradCollege <dbl>, expInc <dbl>,
## #   expLive35 <dbl>, expMarried25 <dbl>, extracurricular <dbl>, friendship <dbl>,
…
# alpha's
addhealth_alpha <- addhealth_pers %>%
  select(name, itemname, year, SID, value) %>%
  group_by(name, year) %>%
  nest() %>%
  mutate(data = map(data, ~(.) %>% pivot_wider(names_from = itemname, values_from = value, values_fn = list(value = mean))),
         alpha = map(data, possibly(~psych::alpha((.) %>% select(-SID)), NA_real_)))

# create composites
addhealth_pers <- addhealth_pers %>%
  group_by(SID, name, year) %>%
  summarize(value = mean(value, na.rm = T)) %>%
  ungroup() 

## # A tibble: 105,398 x 4
##    SID      name   year value
##    <chr>    <chr> <dbl> <dbl>
##  1 57100270 A      1995  3.5 
##  2 57100270 C      1995  3.5 
##  3 57100270 DEP    1995  0.5 
##  4 57100270 DEP    2001  1.75
##  5 57100270 IQ     1995 28   
##  6 57100270 LOC    1995  2   
##  7 57100270 NA     1995  0.5 
##  8 57100270 NA     2001  2   
##  9 57100270 PA     1995  0   
## 10 57100270 SE     1995  5   
## # … with 105,388 more rows
…
addhealth_out <- addhealth_out %>%
  mutate(group = ifelse(year > p_year, "future", "past")) %>%
    group_by(SID, name, group, p_year) %>%
    summarize(value = max(value)) %>%
    ungroup() %>%
    mutate(value = ifelse(is.infinite(value), NA, value)) %>%
    pivot_wider(names_from = group, values_from = value) %>%
    group_by(SID, name) %>%
    mutate(value = ifelse(is.na(past) | (past == 0 & !is.na(future)), future,
                   ifelse(past == 0 & is.na(future), past, 
                   ifelse(past == 1, NA, NA)))) %>%
    ungroup() %>%
  mutate(value = ifelse(name == "crim" & is.na(value), 0, value))

## # A tibble: 198,117 x 4
##    SID      name     p_year value
##    <chr>    <chr>     <dbl> <dbl>
##  1 57100270 chldbrth   1995     0
##  2 57100270 chldbrth   1996     0
##  3 57100270 chldbrth   2001     0
##  4 57100270 crim       1995     0
##  5 57100270 crim       1996     0
##  6 57100270 crim       2001     0
##  7 57100270 divorced   1995     0
##  8 57100270 divorced   1996     0
##  9 57100270 divorced   2001     0
## 10 57100270 edu        1995     0
## # … with 198,107 more rows
…
addhealth_out <- addhealth_out %>%
  select(-past, -future) %>%
  distinct()

unique(specifications$name)[!unique(specifications$name) %in% colnames(addhealth_match2)]

addhealth_SCA <- addhealth_match %>% 
  select(SID, p_year, one_of(c(unique(specifications$name), "momOccPrstg", "dadOccPrstg", "momEdu", "dadEdu"))) %>%
  group_by(SID) %>%
  mutate(parEdu = max(cbind(momEdu, dadEdu), na.rm = T)) %>%
  mutate_at(vars(parEdu), ~ifelse(is.infinite(.), NA, .)) %>%
  ungroup() %>% 
  select(-momEdu, -dadEdu)

## # A tibble: 19,515 x 16
##    SID   p_year   age gender grsWages  race physhlthevnt SRhealth smokes alcohol exercise
##    <chr>  <dbl> <dbl>  <dbl>    <dbl> <dbl>        <dbl>    <dbl>  <dbl>   <dbl>    <dbl>
##  1 5710…   1995    18      1    55000     2            0        4      1       1        2
##  2 5710…   1996    19      1    55000     2            0        4      1       1        2
##  3 5710…   2001    24      1    55000     2           NA        4      1       1        2
##  4 5710…   1995    19      1       NA     2            0       NA      1       1        1
##  5 5710…   1996    20      1       NA     2            0       NA      1       1        1
##  6 5710…   2001    25      1       NA     2           NA       NA      1       1        1
##  7 5710…   1995    16      0    45000     0            0        3      0       0        2
##  8 5710…   1996    17      0    45000     0            0        3      0       0        2
##  9 5710…   2001    22      0    45000     0            0        3      0       0        2
## 10 5710…   1995    18      0     9000    NA            0        1     NA       0       NA
## # … with 19,505 more rows, and 5 more variables: BMI <dbl>, parDivorce <dbl>,
## #   PhysFunc <int>, religion <dbl>, parEdu <dbl>
…
us_codebook <- (codebook %>% filter(study == "US"))$codebook[[1]] %>%
  mutate(orig_itemname = str_to_lower(orig_itemname))
us_codebook

## # A tibble: 235 x 17
##    study dataset category name  itemname  wave waveletter  year new_itemname orig_itemname
##    <chr> <chr>   <chr>    <chr> <chr>    <dbl> <chr>      <dbl> <chr>        <chr>        
##  1 US    xwaved… out      chld… chldbrth     0 <NA>           0 US__out_chl… ch1by_dv     
##  2 US    a_INDR… out      chld… chldbrth     1 a           2009 US__out_chl… a_ch1by4     
##  3 US    b_INDR… out      chld… chldbrth     2 b           2010 US__out_chl… b_ch1by4     
##  4 US    c_INDR… out      chld… chldbrth     3 c           2011 US__out_chl… c_ch1by4     
##  5 US    d_INDR… out      chld… chldbrth     4 d           2012 US__out_chl… d_ch1by4     
##  6 US    e_INDR… out      chld… chldbrth     5 e           2013 US__out_chl… e_ch1by4     
##  7 US    f_INDR… out      chld… chldbrth     6 f           2014 US__out_chl… f_ch1by4     
##  8 US    g_INDR… out      chld… chldbrth     7 g           2015 US__out_chl… g_ch1by4     
##  9 US    h_INDR… out      chld… chldbrth     8 h           2016 US__out_chl… h_ch1by4     
## 10 US    i_INDR… out      chld… chldbrth     9 i           2017 US__out_chl… i_ch1by4     
## # … with 225 more rows, and 7 more variables: description <chr>, scale <chr>,
## #   reverse_code <lgl>, recode <chr>, mini <lgl>, maxi <lgl>, comp_rule <chr>
…
us_out <- us_out %>%
  select(name, itemname, year, reverse_code:comp_rule, PID, value) %>%
  group_by(recode) %>%
  nest() %>%
  ungroup() %>%
  mutate(data = pmap(list(recode, data), recode_fun)) %>%
  unnest(data) 

## # A tibble: 9,282,789 x 10
##    recode               name   itemname  year reverse_code mini  maxi  comp_rule    PID value
##    <chr>                <chr>  <chr>    <dbl> <lgl>        <lgl> <lgl> <chr>      <dbl> <dbl>
##  1 ifelse(x < 0 & !is.… chldb… chldbrth  2009 NA           NA    NA    max       6.80e7     0
##  2 ifelse(x < 0 & !is.… chldb… chldbrth  2009 NA           NA    NA    max       6.80e7     0
##  3 ifelse(x < 0 & !is.… chldb… chldbrth  2009 NA           NA    NA    max       6.80e7     0
##  4 ifelse(x < 0 & !is.… chldb… chldbrth  2009 NA           NA    NA    max       6.80e7     0
##  5 ifelse(x < 0 & !is.… chldb… chldbrth  2009 NA           NA    NA    max       6.80e7     0
##  6 ifelse(x < 0 & !is.… chldb… chldbrth  2009 NA           NA    NA    max       6.80e7     0
##  7 ifelse(x < 0 & !is.… chldb… chldbrth  2009 NA           NA    NA    max       6.80e7     0
##  8 ifelse(x < 0 & !is.… chldb… chldbrth  2009 NA           NA    NA    max       6.80e7     0
##  9 ifelse(x < 0 & !is.… chldb… chldbrth  2009 NA           NA    NA    max       6.80e7     0
## 10 ifelse(x < 0 & !is.… chldb… chldbrth  2009 NA           NA    NA    max       6.80e7     0
## # … with 9,282,779 more rows
…
bhps_codebook <- (codebook %>% filter(study == "BHPS"))$codebook[[1]] %>%
  mutate(orig_itemname = str_to_lower(orig_itemname))
bhps_codebook

## # A tibble: 1,878 x 23
##    study dataset category name  itemname  wave waveletter  year new_itemname orig_itemname
##    <chr> <chr>   <chr>    <chr> <chr>    <dbl> <chr>      <dbl> <chr>        <chr>        
##  1 bhps  aINDRE… match    acci… numAcci…     1 a           1991 bhps__match… anxdts       
##  2 bhps  bINDRE… match    acci… numAcci…     2 b           1992 bhps__match… bnxdts       
##  3 bhps  cINDRE… match    acci… numAcci…     3 c           1993 bhps__match… cnxdts       
##  4 bhps  dINDRE… match    acci… numAcci…     4 d           1994 bhps__match… dnxdts       
##  5 bhps  eINDRE… match    acci… numAcci…     5 e           1995 bhps__match… enxdts       
##  6 bhps  fINDRE… match    acci… numAcci…     6 f           1996 bhps__match… fnxdts       
##  7 bhps  gINDRE… match    acci… numAcci…     7 g           1997 bhps__match… gnxdts       
##  8 bhps  hINDRE… match    acci… numAcci…     8 h           1998 bhps__match… hnxdts       
##  9 bhps  iINDRE… match    acci… numAcci…     9 i           1999 bhps__match… inxdts       
## 10 bhps  jINDRE… match    acci… numAcci…    10 j           2000 bhps__match… jnxdts       
## # … with 1,868 more rows, and 13 more variables: description <chr>, scale <chr>,
## #   reverse_code <chr>, recode <chr>, mini <dbl>, maxi <dbl>, comp_rule <chr>, ...18 <chr>,
## #   ...19 <chr>, ...20 <chr>, ...21 <chr>, ...22 <chr>, ...23 <chr>
…
bhps_match <- crossing(
  p_year = bhps_waves$Used, 
  comp_rule = unique(bhps_match$comp_rule)
  ) %>%
  mutate(data = map2(comp_rule, p_year, comp_fun)) %>%
  unnest(data) %>%
  select(-comp_rule) %>%
  filter(name  != "HHID") %>%
  pivot_wider(names_from = name, values_from = value, values_fn = list(value = ~max(., na.rm = T))) %>%
  mutate_all(~ifelse(is.infinite(.), NA, .)) %>%
  full_join(bhps_htwt) %>%
  full_join(parWages) %>%
  filter(!is.na(p_year))

## # A tibble: 95,699 x 67
##      SID p_year     A     C   DEP     E   LOC     N     O    OP    SE    SS   SWB   SWL
##    <dbl>  <dbl> <dbl> <dbl> <dbl> <dbl> <dbl> <dbl> <dbl> <dbl> <dbl> <dbl> <dbl> <dbl>
##  1  9527   1996    NA    NA  1.83    NA    NA    NA    NA    NA     1    NA    10     4
##  2 12251   1996    NA    NA  1.83    NA    NA    NA    NA    NA     1    NA    10     5
##  3 12935   1996    NA    NA  1       NA    NA    NA    NA    NA     1    NA     0     4
##  4 14287   1996    NA    NA  1.92    NA    NA    NA    NA    NA     2    NA    11     5
##  5 14971   1996    NA    NA  2.75    NA    NA    NA    NA    NA     3    NA    21     2
##  6 15645   1996    NA    NA  2.5     NA    NA    NA    NA    NA     3    NA    18     2
##  7 16339   1996    NA    NA NA       NA    NA    NA    NA    NA    NA    NA    NA    NA
##  8 17687   1996    NA    NA  1.75    NA    NA    NA    NA    NA     1    NA     9     6
##  9 21087   1996    NA    NA  1.92    NA    NA    NA    NA    NA     1    NA    11     3
## 10 21767   1996    NA    NA  2.08    NA    NA    NA    NA    NA     1    NA    13     3
## # … with 95,689 more rows, and 53 more variables: yearBrth <dbl>, drVisits <dbl>,
## #   genderRoles <dbl>, grsWages <dbl>, nbhdQual <dbl>, SRhealth <dbl>, religiosity <dbl>,
## #   exercise <dbl>, satFam <dbl>, satHH <dbl>, accidents <dbl>, disability <dbl>,
## #   education <dbl>, employed <dbl>, homeHelp <dbl>, married <dbl>, smokes <dbl>,
## #   unempBen <dbl>, welfare <dbl>, mvdBigSlry <dbl>, mvdForWork <dbl>, numKids <dbl>,
## #   debt <dbl>, investments <dbl>, savings <dbl>, PhysFunc <dbl>, dadID <dbl>,
## #   dentalIns <dbl>, dentist <dbl>, domesticDuties <dbl>, eyeDr <dbl>, eyeDrIns <dbl>,
## #   gender <dbl>, momID <dbl>, prvntvHlthChcks <dbl>, neighbors <dbl>, satSchl <dbl>,
## #   ageMarried <dbl>, weight <dbl>, height <dbl>, momAgeAtBrth <dbl>, numSiblng <dbl>,
…
# create composites
bhps_pers <- bhps_pers %>%
  group_by(name, comp_rule, year) %>%
  nest() %>%
  ungroup() %>%
  mutate(data = map2(data, comp_rule, comp_fun)) %>%
  unnest(data) %>%
  select(-comp_rule, -HHID)

## # A tibble: 291,507 x 4
##    name   year   SID value
##    <chr> <dbl> <dbl> <dbl>
##  1 A      2005 14971  4   
##  2 A      2005 15645  6   
##  3 A      2005 16339 NA   
##  4 A      2005 17015  5.67
##  5 A      2005 22445  5.33
##  6 A      2005 23807  5.33
##  7 A      2005 27284  4   
##  8 A      2005 28575  3.67
##  9 A      2005 30615  5.67
## 10 A      2005 46927  4.67
## # … with 291,497 more rows
…
bhps_out <- bhps_out %>%
  filter(name != "mortality") %>%
  full_join(
    bhps_out %>% 
      filter(name == "mortality") %>%
      full_join(exit) %>% 
      distinct() %>%
      group_by(SID, name, p_year) %>%
      summarize(value = max(value, na.rm = T)) %>%
      ungroup() %>%
      mutate(value = ifelse(is.infinite(value), NA, value)) 
  )

## # A tibble: 1,154,787 x 6
##      SID name         p_year  past future value
##    <dbl> <chr>         <dbl> <dbl>  <dbl> <dbl>
##  1   687 divorced       1996     0     NA     0
##  2   687 divorced       2001     0     NA     0
##  3   687 divorced       2005     0     NA     0
##  4   687 edu            1996     0     NA     0
##  5   687 edu            2001     0     NA     0
##  6   687 edu            2005     0     NA     0
##  7   687 frstjob        1996     1     NA    NA
##  8   687 frstjob        2001     1     NA    NA
##  9   687 frstjob        2005     1     NA    NA
## 10   687 mntlhlthevnt   1996     0     NA     0
## # … with 1,154,777 more rows
…
bhps_SCA <- bhps_match %>% 
  select(SID, p_year, one_of(c(unique(specifications$name), "momOccPrstg", "dadOccPrstg", "momEdu", "dadEdu"))) %>%
  group_by(SID) %>%
  mutate(parEdu = max(cbind(momEdu, dadEdu), na.rm = T),
         parOccPrstg = max(cbind(momOccPrstg, dadOccPrstg), na.rm = T)) %>%
  mutate_at(vars(parEdu, parOccPrstg), ~ifelse(is.infinite(.), NA, .)) %>%
  ungroup() %>% 
  select(-momEdu, -dadEdu, -momOccPrstg, -dadOccPrstg)

## # A tibble: 95,699 x 19
##      SID p_year   age education gender grsWages  race physhlthevnt SRhealth smokes exercise
##    <dbl>  <dbl> <dbl>     <dbl>  <dbl>    <dbl> <dbl>        <dbl>    <dbl>  <dbl>    <dbl>
##  1  9527   1996    35         0      1   13186.     0            1     3.17      1      3.5
##  2 12251   1996    25         0      1   10485.     2            1     3.17      0      1  
##  3 12935   1996    23         0      1   13109.     1            0     4.8       1      3  
##  4 14287   1996    35         0      0   10948.     0            1     2.5       1      1  
##  5 14971   1996    34         0      1   10948.     1            1     3.17      1      2  
##  6 15645   1996    40         1      1   14686.     0            1     4         0      3  
##  7 16339   1996    24         0      1   15111.     0            0     4.83      0     NA  
##  8 17687   1996    27         0      1   11266.     0            0     4.17      1      3  
##  9 21087   1996    32         0      1   28184.     1            1     4.17      1      3.5
## 10 21767   1996    51         2      1   29317.     0            0     3.33      0      5  
## # … with 95,689 more rows, and 8 more variables: BMI <dbl>, married <dbl>, numKids <dbl>,
## #   parDivorce <dbl>, PhysFunc <dbl>, religion <dbl>, parEdu <dbl>, parOccPrstg <dbl>
…
