Chapter 4 PSM Models {PSM Mods} | A Mega-Analysis of Personality Predictions: Robustness and Boundary Conditions
…
4.4.1.2.3 Significant Fixed Effects

fx_me <- fx_res %>%
  filter(Moderator == "none" & names == "p_value" &
        sign(Q5.5) == sign(Q94.5))
fx_me

## # A tibble: 64 x 12
##    Trait Outcome Moderator names Estimate Est.Error     Q5.5    Q94.5 Estimate_OR
##    <chr> <chr>   <chr>     <chr>    <dbl>     <dbl>    <dbl>    <dbl>       <dbl>
##  1 A     crim    none      p_va  -0.0467    0.0230 -0.0837  -0.0104        0.954
##  2 A     divorc none      p_va   0.0504    0.0210  0.0189   0.0838        1.05 
##  3 A     married none      p_va   0.0364    0.0123  0.0177   0.0557        1.04 
##  4 A     physhl none      p_va   0.0247    0.0127  0.00458  0.0440        1.03 
##  5 A     vlntred none      p_va   0.0351    0.0139  0.0130   0.0566        1.04 
##  6 C     chldbr none      p_va   0.0327    0.0199  0.00345  0.0655        1.03 
##  7 C     divorc none      p_va   0.0362    0.0161  0.0114   0.0622        1.04 
##  8 C     edu     none      p_va  -0.0297    0.0163 -0.0551  -0.00380       0.971
##  9 C     married none      p_va   0.0347    0.0164  0.00955  0.0606        1.04 
## 10 C     mntlhl none      p_va  -0.0354    0.0168 -0.0611  -0.00819       0.965
## #  with 54 more rows, and 3 more variables: Est.Error_OR <dbl>, Q5.5_OR <dbl>,
## #   Q94.5_OR <dbl>

fx_mod <- fx_res %>%
  filter(grepl("p_value:", names) & sign(Q5.5) == sign(Q94.5)) 
fx_mod

## # A tibble: 107 x 12
##    Trait Outcome Moderator names Estimate Est.Error     Q5.5    Q94.5 Estimate_OR
##    <chr> <chr>   <chr>     <chr>    <dbl>     <dbl>    <dbl>    <dbl>       <dbl>
##  1 A     chldbr age       p_va -0.00226   0.00116 -3.95e-3 -5.35e-4       0.998
##  2 A     chldbr predInt   p_va -0.0130    0.00421 -1.96e-2 -6.26e-3       0.987
##  3 A     married age       p_va -0.00301   0.00171 -5.87e-3 -7.57e-4       0.997
##  4 A     mntlhl parOccPr p_va  0.00788   0.00442  9.43e-4  1.49e-2       1.01 
##  5 A     mntlhl predInt   p_va -0.00831   0.00521 -1.64e-2 -1.79e-4       0.992
##  6 A     mortal gender    p_va -0.0470    0.0220  -8.20e-2 -1.26e-2       0.954
##  7 A     retired parEdu    p_va  0.0981    0.0555   1.27e-2  1.88e-1       1.10 
##  8 C     chldbr gender    p_va -0.0301    0.0185  -5.89e-2 -1.07e-3       0.970
##  9 C     chldbr parEdu    p_va  0.0656    0.0254   2.69e-2  1.06e-1       1.07 
## 10 C     chldbr predInt   p_va -0.0133    0.00729 -2.43e-2 -1.88e-3       0.987
## #  with 97 more rows, and 3 more variables: Est.Error_OR <dbl>, Q5.5_OR <dbl>,
## #   Q94.5_OR <dbl>
…
vc_res <- tibble(file = list.files(sprintf("%s/results/psm/matched/vc", wd))) %>%
  separate(file, c("scrap", "Trait", "Outcome", "Moderator"), sep = "_", remove = F) %>%
  mutate(Moderator = str_remove(Moderator, ".RData"),
         vc = map(file, ~load_fun(., "vc")),
         sd = map(vc, vc_fun))  %>%
  select(-scrap, -file)
vc_res

## # A tibble: 1,747 x 5
##    Trait Outcome   Moderator   vc               sd              
##    <chr> <chr>     <chr>       <list>           <list>          
##  1 A     chldbrth  age         <named list [3]> <tibble [4  5]>
##  2 A     chldbrth  gender      <named list [3]> <tibble [4  5]>
##  3 A     chldbrth  grsWages    <named list [3]> <tibble [4  5]>
##  4 A     chldbrth  none        <named list [3]> <tibble [2  5]>
##  5 A     chldbrth  parEdu      <named list [3]> <tibble [6  5]>
##  6 A     chldbrth  parOccPrstg <named list [3]> <tibble [4  5]>
##  7 A     chldbrth  predInt     <named list [3]> <tibble [2  5]>
##  8 A     chldbrth  race        <named list [3]> <tibble [6  5]>
##  9 A     chldbrth  reliability <named list [3]> <tibble [2  5]>
## 10 A     chldmvout age         <named list [3]> <tibble [4  5]>
## #  with 1,737 more rows
…
